{
  "_class": "group",
  "do_objectID": "FABB8316-C501-4D92-8DB4-CEB02009B76D",
  "exportOptions": {
    "_class": "exportOptions",
    "exportFormats": [
    ],
    "includedLayerIds": [
    ],
    "layerOptions": 0,
    "shouldTrim": false
  },
  "frame": {
    "_class": "rect",
    "constrainProportions": false,
    "height": 50,
    "width": 97,
    "x": 394,
    "y": 0
  },
  "hasClickThrough": false,
  "isFlippedHorizontal": false,
  "isFlippedVertical": false,
  "isLocked": false,
  "isVisible": true,
  "layerListExpandedType": 0,
  "layers": [
    {
      "class": "shapeGroup",
      "id": "D44B1584-820B-44FD-8F76-DDEC9F058FBF"
    },
    {
      "class": "shapeGroup",
      "id": "CA510BB4-D6ED-4CD4-B867-266A1395A04F"
    },
    {
      "class": "group",
      "id": "58BB2A2F-AA80-4EBD-91BB-B01A81D870A2"
    },
    {
      "class": "text",
      "id": "B334EAC6-1BDD-4D48-A9B3-06DF3445683C"
    }
  ],
  "name": "tab-changes",
  "nameIsFixed": true,
  "resizingConstraint": 63,
  "resizingType": 0,
  "rotation": 0,
  "shouldBreakMaskChain": false,
  "style": {
    "_class": "style",
    "endDecorationType": 0,
    "miterLimit": 10,
    "startDecorationType": 0
  }
}