{
  "_class": "group",
  "do_objectID": "C4E3D0CA-6259-4CFB-99D9-C49D64F79171",
  "exportOptions": {
    "_class": "exportOptions",
    "exportFormats": [
    ],
    "includedLayerIds": [
    ],
    "layerOptions": 0,
    "shouldTrim": false
  },
  "frame": {
    "_class": "rect",
    "constrainProportions": false,
    "height": 258,
    "width": 527,
    "x": 235,
    "y": 120
  },
  "hasClickThrough": false,
  "isFlippedHorizontal": false,
  "isFlippedVertical": false,
  "isLocked": false,
  "isVisible": true,
  "layerListExpandedType": 2,
  "layers": [
    {
      "class": "shapeGroup",
      "id": "7267DA51-CC75-4479-BCDD-40B3969285B6"
    },
    {
      "class": "shapeGroup",
      "id": "544AE322-1485-467E-A63A-B2B3BB7BB0EB"
    },
    {
      "class": "shapeGroup",
      "id": "EA627733-A126-4CE0-90F5-7FB55DA332AA"
    },
    {
      "class": "shapeGroup",
      "id": "892FF627-C9CB-4303-B9AA-960A7F75C5A2"
    },
    {
      "class": "shapeGroup",
      "id": "694B81FE-22C9-4EF0-BD0F-12225E4075B9"
    },
    {
      "class": "shapeGroup",
      "id": "7FC628B7-10EA-42D1-83EE-E14C69BFB945"
    },
    {
      "class": "shapeGroup",
      "id": "8B57B7F3-EF84-4092-9751-9A28053D489D"
    },
    {
      "class": "shapeGroup",
      "id": "2FB8411C-B200-4A08-95F3-48AE4B322E3A"
    },
    {
      "class": "shapeGroup",
      "id": "29463F03-00EE-40A2-B143-E7F02427764E"
    }
  ],
  "name": "new_epic copy 20",
  "nameIsFixed": true,
  "resizingConstraint": 63,
  "resizingType": 0,
  "rotation": 0,
  "shouldBreakMaskChain": false,
  "style": {
    "_class": "style",
    "endDecorationType": 0,
    "miterLimit": 10,
    "startDecorationType": 0
  }
}