{
  "_class": "group",
  "do_objectID": "920AB83F-F6E9-491B-8F23-4A430B89757F",
  "exportOptions": {
    "_class": "exportOptions",
    "exportFormats": [
    ],
    "includedLayerIds": [
    ],
    "layerOptions": 0,
    "shouldTrim": false
  },
  "frame": {
    "_class": "rect",
    "constrainProportions": false,
    "height": 24,
    "width": 647,
    "x": 607,
    "y": 876
  },
  "hasClickThrough": false,
  "isFlippedHorizontal": false,
  "isFlippedVertical": false,
  "isLocked": false,
  "isVisible": true,
  "layerListExpandedType": 0,
  "layers": [
    {
      "class": "shapeGroup",
      "id": "DA23B43F-BD58-411C-8E24-ED285A984498"
    },
    {
      "class": "shapeGroup",
      "id": "DEF798EC-AED9-4758-A7DD-D5533173A169"
    },
    {
      "class": "shapeGroup",
      "id": "FCB81106-C0EA-4796-8696-0FF60ECCB289"
    },
    {
      "class": "text",
      "id": "19613128-1624-4603-A46D-F68EFEED9CB5"
    }
  ],
  "name": "new_epic copy 9",
  "nameIsFixed": true,
  "resizingConstraint": 63,
  "resizingType": 0,
  "rotation": 0,
  "shouldBreakMaskChain": false,
  "style": {
    "_class": "style",
    "endDecorationType": 0,
    "miterLimit": 10,
    "shadows": [
      {
        "_class": "shadow",
        "blurRadius": 2,
        "color": {
          "_class": "color",
          "alpha": 0.5,
          "blue": 0.7294117647058823,
          "green": 0.7294117647058823,
          "red": 0.7294117647058823
        },
        "contextSettings": {
          "_class": "graphicsContextSettings",
          "blendMode": 0,
          "opacity": 1
        },
        "isEnabled": true,
        "offsetX": 0,
        "offsetY": 1,
        "spread": 0
      }
    ],
    "startDecorationType": 0
  }
}