{
  "_class": "shapePath",
  "booleanOperation": 0,
  "do_objectID": "F2E4F4FA-B4C1-46BD-9018-380C8126EB0B",
  "edited": true,
  "exportOptions": {
    "_class": "exportOptions",
    "exportFormats": [
    ],
    "includedLayerIds": [
    ],
    "layerOptions": 0,
    "shouldTrim": false
  },
  "frame": {
    "_class": "rect",
    "constrainProportions": false,
    "height": 16,
    "width": 14,
    "x": 0,
    "y": 0
  },
  "isFlippedHorizontal": false,
  "isFlippedVertical": false,
  "isLocked": false,
  "isVisible": true,
  "layerListExpandedType": 0,
  "name": "Rectangle 65",
  "nameIsFixed": false,
  "path": {
    "_class": "path",
    "isClosed": true,
    "pointRadiusBehaviour": 1,
    "points": [
      {
        "_class": "curvePoint",
        "cornerRadius": 0,
        "curveFrom": "{0.2857142857142857, 0}",
        "curveMode": 4,
        "curveTo": "{0.12791864290548755, 2.7755575615628914e-17}",
        "hasCurveFrom": false,
        "hasCurveTo": true,
        "point": "{0.2857142857142857, 0}"
      },
      {
        "_class": "curvePoint",
        "cornerRadius": 0,
        "curveFrom": "{0.8720813570945124, -2.7755575615628914e-17}",
        "curveMode": 4,
        "curveTo": "{0.7142857142857143, 0}",
        "hasCurveFrom": true,
        "hasCurveTo": false,
        "point": "{0.7142857142857143, 0}"
      },
      {
        "_class": "curvePoint",
        "cornerRadius": 0,
        "curveFrom": "{1, 0.24999999999999994}",
        "curveMode": 4,
        "curveTo": "{1, 0.11192881254230161}",
        "hasCurveFrom": false,
        "hasCurveTo": true,
        "point": "{1, 0.24999999999999994}"
      },
      {
        "_class": "curvePoint",
        "cornerRadius": 0,
        "curveFrom": "{1, 0.88807118745769831}",
        "curveMode": 4,
        "curveTo": "{1, 0.75}",
        "hasCurveFrom": true,
        "hasCurveTo": false,
        "point": "{1, 0.75}"
      },
      {
        "_class": "curvePoint",
        "cornerRadius": 0,
        "curveFrom": "{0.7142857142857143, 1}",
        "curveMode": 4,
        "curveTo": "{0.8720813570945124, 1}",
        "hasCurveFrom": false,
        "hasCurveTo": true,
        "point": "{0.7142857142857143, 1}"
      },
      {
        "_class": "curvePoint",
        "cornerRadius": 0,
        "curveFrom": "{0.12791864290548763, 1}",
        "curveMode": 4,
        "curveTo": "{0.2857142857142857, 1}",
        "hasCurveFrom": true,
        "hasCurveTo": false,
        "point": "{0.2857142857142857, 1}"
      },
      {
        "_class": "curvePoint",
        "cornerRadius": 0,
        "curveFrom": "{0, 0.75}",
        "curveMode": 4,
        "curveTo": "{1.5860328923216521e-17, 0.88807118745769831}",
        "hasCurveFrom": false,
        "hasCurveTo": true,
        "point": "{0, 0.75}"
      },
      {
        "_class": "curvePoint",
        "cornerRadius": 0,
        "curveFrom": "{-1.5860328923216521e-17, 0.11192881254230164}",
        "curveMode": 4,
        "curveTo": "{0, 0.25}",
        "hasCurveFrom": true,
        "hasCurveTo": false,
        "point": "{0, 0.25}"
      }
    ]
  },
  "resizingConstraint": 63,
  "resizingType": 0,
  "rotation": 0,
  "shouldBreakMaskChain": false
}