<svg xmlns="http://www.w3.org/2000/svg" width="16" height="16" viewBox="0 0 16 16">
  <path fill="#000000" fill-rule="evenodd" d="M8,7 C6.34314575,7 5,5.65685425 5,4 C5,2.34314575 6.34314575,1 8,1 C9.65685425,1 11,2.34314575 11,4 C11,5.65685425 9.65685425,7 8,7 Z M8,15 C1.11181641,15 1.02356109,14.2194824 1.02356109,12.48 C1.02356109,10.7405176 2.14416504,8 8,8 C13.855835,8 14.9764389,10.6919336 14.9764389,12.48 C14.9764389,14.2680664 14.8881836,15 8,15 Z"/>
</svg>
