{
  "_class": "group",
  "do_objectID": "9868F49B-7FBA-4F41-929C-FC0E84D9905A",
  "exportOptions": {
    "_class": "exportOptions",
    "exportFormats": [
    ],
    "includedLayerIds": [
    ],
    "layerOptions": 0,
    "shouldTrim": false
  },
  "frame": {
    "_class": "rect",
    "constrainProportions": false,
    "height": 28,
    "width": 527,
    "x": 607,
    "y": 1352
  },
  "hasClickThrough": false,
  "isFlippedHorizontal": false,
  "isFlippedVertical": false,
  "isLocked": false,
  "isVisible": true,
  "layerListExpandedType": 2,
  "layers": [
    {
      "class": "shapeGroup",
      "id": "E24AB032-6245-405A-A000-BE1BF3FE0A3B"
    },
    {
      "class": "shapeGroup",
      "id": "4C596790-6D93-47B7-AD16-935BCFD7DF9C"
    },
    {
      "class": "shapeGroup",
      "id": "AAAA3ADA-96B2-4815-A2FB-F7E46DF00681"
    },
    {
      "class": "shapeGroup",
      "id": "5A85F9AB-CF8F-4428-BDD5-3E81E3119FA0"
    },
    {
      "class": "text",
      "id": "300BC14E-024A-4891-95DA-D05CB25503AE"
    }
  ],
  "name": "new_epic copy 19",
  "nameIsFixed": true,
  "resizingConstraint": 63,
  "resizingType": 0,
  "rotation": 0,
  "shouldBreakMaskChain": false,
  "style": {
    "_class": "style",
    "endDecorationType": 0,
    "miterLimit": 10,
    "startDecorationType": 0
  }
}