{
  "_class": "group",
  "do_objectID": "4F16AB01-9CAF-40A2-9664-1A050BF5D894",
  "exportOptions": {
    "_class": "exportOptions",
    "exportFormats": [
    ],
    "includedLayerIds": [
    ],
    "layerOptions": 0,
    "shouldTrim": false
  },
  "frame": {
    "_class": "rect",
    "constrainProportions": false,
    "height": 28,
    "width": 527,
    "x": 607,
    "y": 1112
  },
  "hasClickThrough": false,
  "isFlippedHorizontal": false,
  "isFlippedVertical": false,
  "isLocked": false,
  "isVisible": true,
  "layerListExpandedType": 2,
  "layers": [
    {
      "class": "shapeGroup",
      "id": "B412DA16-DD0E-4A54-AFF6-07960F790612"
    },
    {
      "class": "shapeGroup",
      "id": "3FDE87B1-24BE-4937-8D09-70C2CAA1FAA9"
    },
    {
      "class": "shapeGroup",
      "id": "DC26D031-95B8-4EB6-90C0-C78420801FCF"
    },
    {
      "class": "text",
      "id": "916BDC88-2BCF-4679-B60A-E8D77B19B8B0"
    }
  ],
  "name": "new_epic copy 14",
  "nameIsFixed": true,
  "resizingConstraint": 63,
  "resizingType": 0,
  "rotation": 0,
  "shouldBreakMaskChain": false,
  "style": {
    "_class": "style",
    "endDecorationType": 0,
    "miterLimit": 10,
    "startDecorationType": 0
  }
}